<?xml version="1.0" encoding="UTF-8" standalone="no"?>
<!-- Created with Inkscape (http://www.inkscape.org/) -->

<svg
   xmlns:dc="http://purl.org/dc/elements/1.1/"
   xmlns:cc="http://creativecommons.org/ns#"
   xmlns:rdf="http://www.w3.org/1999/02/22-rdf-syntax-ns#"
   xmlns:svg="http://www.w3.org/2000/svg"
   xmlns="http://www.w3.org/2000/svg"
   xmlns:sodipodi="http://sodipodi.sourceforge.net/DTD/sodipodi-0.dtd"
   xmlns:inkscape="http://www.inkscape.org/namespaces/inkscape"
   width="1640.375"
   height="600"
   id="svg3795"
   version="1.1"
   inkscape:version="0.48.4 r9939"
   sodipodi:docname="New document 3">
  <defs
     id="defs3797" />
  <sodipodi:namedview
     id="base"
     pagecolor="#ffffff"
     bordercolor="#666666"
     borderopacity="1.0"
     inkscape:pageopacity="0.0"
     inkscape:pageshadow="2"
     inkscape:zoom="0.5"
     inkscape:cx="967.17785"
     inkscape:cy="37.007076"
     inkscape:document-units="px"
     inkscape:current-layer="layer1"
     showgrid="true"
     inkscape:snap-bbox="true"
     inkscape:snap-page="true"
     showguides="false"
     inkscape:guide-bbox="true"
     fit-margin-top="0"
     fit-margin-left="0"
     fit-margin-right="0"
     fit-margin-bottom="0"
     inkscape:window-width="1920"
     inkscape:window-height="1027"
     inkscape:window-x="-8"
     inkscape:window-y="-8"
     inkscape:window-maximized="1">
    <inkscape:grid
       type="xygrid"
       id="grid3818"
       empspacing="5"
       visible="true"
       enabled="true"
       snapvisiblegridlinesonly="true"
       originx="-24.999996px"
       originy="-424.99998px" />
    <sodipodi:guide
       orientation="0,1"
       position="-1275,600.00002"
       id="guide3983" />
    <sodipodi:guide
       orientation="0,1"
       position="-180,485.00002"
       id="guide3985" />
    <sodipodi:guide
       orientation="1,0"
       position="4.2568735e-006,600.00002"
       id="guide3987" />
    <sodipodi:guide
       orientation="1,0"
       position="100,700.00002"
       id="guide3989" />
    <sodipodi:guide
       orientation="1,0"
       position="210,640.00002"
       id="guide3991" />
    <sodipodi:guide
       orientation="1,0"
       position="340,550.00002"
       id="guide3993" />
    <sodipodi:guide
       orientation="1,0"
       position="225,560.00002"
       id="guide3995" />
    <sodipodi:guide
       orientation="1,0"
       position="85.000007,530.00002"
       id="guide3997" />
    <sodipodi:guide
       orientation="1,0"
       position="350,555.00002"
       id="guide3999" />
    <sodipodi:guide
       orientation="1,0"
       position="435,565.00002"
       id="guide4001" />
  </sodipodi:namedview>
  <metadata
     id="metadata3800">
    <rdf:RDF>
      <cc:Work
         rdf:about="">
        <dc:format>image/svg+xml</dc:format>
        <dc:type
           rdf:resource="http://purl.org/dc/dcmitype/StillImage" />
        <dc:title></dc:title>
      </cc:Work>
    </rdf:RDF>
  </metadata>
  <g
     inkscape:label="Layer 1"
     inkscape:groupmode="layer"
     id="layer1"
     transform="translate(-24.999996,-27.362174)">
    <g
       style="display:inline"
       transform="matrix(0.18743629,0,0,0.19216006,38.389355,-7.3657414)"
       id="g3899">
      <path
         sodipodi:nodetypes="ccccc"
         inkscape:connector-curvature="0"
         id="path3828-9"
         d="m 125.05292,341.63192 c 0,146.04569 161.41728,303.32567 0,438.13708 l 201.7716,0 c -161.41728,-134.81141 0,-292.09139 0,-438.13708 z"
         style="fill:#000004;fill-opacity:1;stroke:none" />
      <g
         id="g3854">
        <path
           style="fill:#000004;fill-opacity:1;stroke:#000000;stroke-width:0.74757701px;stroke-linecap:butt;stroke-linejoin:miter;stroke-opacity:1"
           d="M 225.01118,182.14662 C 161.85799,311.20119 -40.232227,477.12849 -2.3403126,587.7467 37.688434,704.60297 187.66099,646.11666 225.01118,569.31033 z"
           id="path3848"
           inkscape:connector-curvature="0"
           sodipodi:nodetypes="cccc" />
        <path
           sodipodi:nodetypes="cccc"
           inkscape:connector-curvature="0"
           id="path3852"
           d="m 225.08109,181.09311 c 63.15319,129.05457 265.24339,294.98188 227.35148,405.60008 -40.02874,116.85628 -190.0013,58.36996 -227.35148,-18.43637 z"
           style="fill:#000004;fill-opacity:1;stroke:#000000;stroke-width:0.74757701px;stroke-linecap:butt;stroke-linejoin:miter;stroke-opacity:1" />
      </g>
    </g>
    <g
       transform="translate(-294.7842,-296.96712)"
       id="g3842">
      <path
         sodipodi:nodetypes="cccc"
         inkscape:connector-curvature="0"
         id="path3848-8"
         d="m 374.99168,590.13644 c -15.02522,-31.68205 -63.10592,-72.41612 -54.09079,-99.57217 9.52352,-28.68744 45.20455,-14.32944 54.09079,4.52601 z"
         style="fill:#b20004;fill-opacity:1;stroke:none" />
      <path
         style="fill:#b20004;fill-opacity:1;stroke:none"
         d="m 374.60654,590.14255 c 15.02522,-31.68205 63.10592,-72.41612 54.09079,-99.57217 -9.52352,-28.68745 -45.20455,-14.32944 -54.09079,4.52601 z"
         id="path3852-8"
         inkscape:connector-curvature="0"
         sodipodi:nodetypes="cccc" />
    </g>
    <g
       style="display:inline"
       id="g3892"
       transform="matrix(0.21012964,0,0,0.19035313,211.53508,294.82443)">
      <path
         transform="translate(-74.571429,68.571429)"
         d="m -400,239.86218 c 0,75.93916 -61.56085,137.5 -137.5,137.5 -75.93915,0 -137.5,-61.56084 -137.5,-137.5 0,-75.93915 61.56085,-137.5 137.5,-137.5 75.93915,0 137.5,61.56085 137.5,137.5 z"
         sodipodi:ry="137.5"
         sodipodi:rx="137.5"
         sodipodi:cy="239.86218"
         sodipodi:cx="-537.5"
         id="path3014"
         style="fill:#007f04;fill-opacity:1;stroke:none"
         sodipodi:type="arc" />
      <path
         transform="translate(-212.71429,299.85714)"
         d="m -400,239.86218 c 0,75.93916 -61.56085,137.5 -137.5,137.5 -75.93915,0 -137.5,-61.56084 -137.5,-137.5 0,-75.93915 61.56085,-137.5 137.5,-137.5 75.93915,0 137.5,61.56085 137.5,137.5 z"
         sodipodi:ry="137.5"
         sodipodi:rx="137.5"
         sodipodi:cy="239.86218"
         sodipodi:cx="-537.5"
         id="path3014-4"
         style="fill:#007f04;fill-opacity:1;stroke:none"
         sodipodi:type="arc" />
      <path
         transform="translate(62.28571,299.85714)"
         d="m -400,239.86218 c 0,75.93916 -61.56085,137.5 -137.5,137.5 -75.93915,0 -137.5,-61.56084 -137.5,-137.5 0,-75.93915 61.56085,-137.5 137.5,-137.5 75.93915,0 137.5,61.56085 137.5,137.5 z"
         sodipodi:ry="137.5"
         sodipodi:rx="137.5"
         sodipodi:cy="239.86218"
         sodipodi:cx="-537.5"
         id="path3014-4-0"
         style="fill:#007f04;fill-opacity:1;stroke:none"
         sodipodi:type="arc" />
      <path
         sodipodi:nodetypes="ccccc"
         inkscape:connector-curvature="0"
         id="path3828"
         d="m -712.37565,340.48906 c 0,146.04569 161.41728,303.32567 0,438.13708 l 201.7716,0 c -161.41728,-134.81141 0,-292.09139 0,-438.13708 z"
         style="fill:#007f04;fill-opacity:1;stroke:none" />
    </g>
    <g
       transform="translate(-293.19443,2.7683126)"
       id="g3932">
      <path
         sodipodi:nodetypes="cccc"
         inkscape:connector-curvature="0"
         id="path3980"
         d="m 331.76093,532.3453 43.23601,0 0,57.7852 c -10.8346,-21.89141 -24.64668,-41.59413 -43.23601,-57.7852 z"
         style="fill:#0000be;fill-opacity:1;stroke:none" />
      <path
         style="fill:#0000be;fill-opacity:1;stroke:none"
         d="m 418.19443,532.37908 -43.23603,0 0,-57.78521 c 10.83459,21.89141 24.64669,41.59414 43.23603,57.78521 z"
         id="path3994"
         inkscape:connector-curvature="0"
         sodipodi:nodetypes="cccc" />
      <path
         style="fill:#0000be;fill-opacity:1;stroke:none"
         d="m 331.76093,532.37913 43.23601,0 0,-57.64801 c -10.8346,21.83944 -24.64668,41.49538 -43.23601,57.64801 z"
         id="path4022"
         inkscape:connector-curvature="0"
         sodipodi:nodetypes="cccc" />
      <path
         sodipodi:nodetypes="cccc"
         inkscape:connector-curvature="0"
         id="path4024"
         d="m 418.19443,532.34523 -43.23603,0 0,57.64801 c 10.83459,-21.83943 24.64669,-41.49538 43.23603,-57.64801 z"
         style="fill:#0000be;fill-opacity:1;stroke:none" />
    </g>
    <text
       xml:space="preserve"
       style="font-size:24px;font-style:normal;font-weight:normal;line-height:125%;letter-spacing:0px;word-spacing:0px;fill:#000000;fill-opacity:1;stroke:none;font-family:Sans"
       x="-60.609154"
       y="232.11832"
       id="text4003"
       sodipodi:linespacing="125%"><tspan
         sodipodi:role="line"
         id="tspan4005"
         x="-60.609154"
         y="232.11832" /></text>
    <text
       xml:space="preserve"
       style="font-size:26.21542168px;font-style:normal;font-weight:normal;line-height:125%;letter-spacing:0px;word-spacing:0px;fill:#b20004;fill-opacity:1;stroke:none;font-family:Sans"
       x="160.46706"
       y="268.89935"
       id="text4007"
       sodipodi:linespacing="125%"
       transform="scale(0.91549169,1.0923092)"><tspan
         sodipodi:role="line"
         id="tspan4009"
         x="160.46706"
         y="268.89935"
         style="font-size:157.29252625px;font-style:normal;font-variant:normal;font-weight:normal;font-stretch:normal;fill:#b20004;fill-opacity:1;font-family:Times New Roman;-inkscape-font-specification:Times New Roman">2 3 4 5 6 7 8 9 10 J Q K A</tspan></text>
    <text
       xml:space="preserve"
       style="font-size:26.21542168px;font-style:normal;font-weight:normal;line-height:125%;letter-spacing:0px;word-spacing:0px;fill:#007f04;fill-opacity:1;stroke:none;font-family:Sans"
       x="160.46706"
       y="406.22311"
       id="text4007-1"
       sodipodi:linespacing="125%"
       transform="scale(0.91549169,1.0923092)"><tspan
         sodipodi:role="line"
         id="tspan4009-7"
         x="160.46706"
         y="406.22311"
         style="font-size:157.29252625px;font-style:normal;font-variant:normal;font-weight:normal;font-stretch:normal;fill:#007f04;fill-opacity:1;font-family:Times New Roman;-inkscape-font-specification:Times New Roman">2 3 4 5 6 7 8 9 10 J Q K A</tspan></text>
    <text
       transform="scale(0.91549169,1.0923092)"
       sodipodi:linespacing="125%"
       id="text4540"
       y="543.54688"
       x="160.46706"
       style="font-size:26.21542168px;font-style:normal;font-weight:normal;line-height:125%;letter-spacing:0px;word-spacing:0px;fill:#0000be;fill-opacity:1;stroke:none;font-family:Sans"
       xml:space="preserve"><tspan
         style="font-size:157.29252625px;font-style:normal;font-variant:normal;font-weight:normal;font-stretch:normal;fill:#0000be;fill-opacity:1;font-family:Times New Roman;-inkscape-font-specification:Times New Roman"
         y="543.54688"
         x="160.46706"
         id="tspan4542"
         sodipodi:role="line">2 3 4 5 6 7 8 9 10 J Q K A</tspan></text>
    <text
       transform="scale(0.91549169,1.0923092)"
       sodipodi:linespacing="125%"
       id="text4544"
       y="131.57559"
       x="160.46706"
       style="font-size:26.21542168px;font-style:normal;font-weight:normal;line-height:125%;letter-spacing:0px;word-spacing:0px;fill:#000004;fill-opacity:1;stroke:none;font-family:Sans"
       xml:space="preserve"><tspan
         style="font-size:157.29252625px;font-style:normal;font-variant:normal;font-weight:normal;font-stretch:normal;fill:#000004;fill-opacity:1;font-family:Times New Roman;-inkscape-font-specification:Times New Roman"
         y="131.57559"
         x="160.46706"
         id="tspan4546"
         sodipodi:role="line">2 3 4 5 6 7 8 9 10 J Q K A</tspan></text>
  </g>
</svg>
